module todo-service

go 1.13

require (
	github.com/dgrijalva/jwt-go v3.2.0+incompatible // indirect
	github.com/golang/mock v1.4.3
	github.com/labstack/echo v3.3.10+incompatible
	github.com/labstack/gommon v0.3.0 // indirect
	github.com/mattn/go-isatty v0.0.9 // indirect
	github.com/stretchr/testify v1.4.0
	go.mongodb.org/mongo-driver v1.3.4
	golang.org/x/crypto v0.0.0-20200604202706-70a84ac30bf9 // indirect
	golang.org/x/mod v0.3.0 // indirect
	golang.org/x/tools v0.0.0-20200612220849-54c614fe050c // indirect
)
